%YAML 1.1
%TAG !u! tag:unity3d.com,2011:
--- !u!1045 &1
EditorBuildSettings:
  m_ObjectHideFlags: 0
  serializedVersion: 2
  m_Scenes:
  - enabled: 1
    path: Assets/Scenes/0.unity
    guid: 650790bbbeea29448820a9f95227968e
  - enabled: 1
    path: Assets/Scenes/1.unity
    guid: 2cda990e2423bbf4892e6590ba056729
  - enabled: 1
    path: Assets/Scenes/2.unity
    guid: 9f4ff43e1d46e8d4190bcc09f3692622
  - enabled: 1
    path: Assets/Scenes/3.unity
    guid: 241196e1b2becb340b451a9fbf7a679f
  m_configObjects: {}
